{
    "name": "Bini.ToolKit.SvgShaders.Editor",
    "references": [
        "Bini.ToolKit.SvgShaders"
    ],
    "optionalUnityReferences": [],
    "includePlatforms": [
        "Editor"
    ],
    "excludePlatforms": [],
    "allowUnsafeCode": false,
    "overrideReferences": false,
    "precompiledReferences": [],
    "autoReferenced": true,
    "defineConstraints": []
}